^U:\PROJECTS\PROJECTWORK\PROJECTWORK\HELPERS.CPP
/c /ZI /JMC /nologo /W3 /WX- /diagnostics:column /sdl /Od /D _DEBUG /D _CONSOLE /D _UNICODE /D UNICODE /Gm- /EHsc /RTC1 /MDd /GS /fp:precise /Zc:wchar_t /Zc:forScope /Zc:inline /permissive- /Fo"X64\DEBUG\\" /Fd"X64\DEBUG\VC143.PDB" /external:W3 /Gd /TP /FC U:\PROJECTS\PROJECTWORK\PROJECTWORK\HELPERS.CPP
^U:\PROJECTS\PROJECTWORK\PROJECTWORK\HELPER.CPP
/c /ZI /JMC /nologo /W3 /WX- /diagnostics:column /sdl /Od /D _DEBUG /D _CONSOLE /D _UNICODE /D UNICODE /Gm- /EHsc /RTC1 /MDd /GS /fp:precise /Zc:wchar_t /Zc:forScope /Zc:inline /permissive- /Fo"X64\DEBUG\\" /Fd"X64\DEBUG\VC143.PDB" /external:W3 /Gd /TP /FC U:\PROJECTS\PROJECTWORK\PROJECTWORK\HELPER.CPP
