^U:\PROJECTS\PROJECTWORK\PROJECTWORK\X64\DEBUG\HELPER.OBJ|U:\PROJECTS\PROJECTWORK\PROJECTWORK\X64\DEBUG\PROJECTWORK.OBJ
C:\PROGRAM FILES (X86)\WINDOWS KITS\10\LIB\10.0.22621.0\UM\X64\KERNEL32.LIB
C:\PROGRAM FILES (X86)\WINDOWS KITS\10\LIB\10.0.22621.0\UM\X64\USER32.LIB
C:\PROGRAM FILES (X86)\WINDOWS KITS\10\LIB\10.0.22621.0\UM\X64\GDI32.LIB
C:\PROGRAM FILES (X86)\WINDOWS KITS\10\LIB\10.0.22621.0\UM\X64\WINSPOOL.LIB
C:\PROGRAM FILES (X86)\WINDOWS KITS\10\LIB\10.0.22621.0\UM\X64\COMDLG32.LIB
C:\PROGRAM FILES (X86)\WINDOWS KITS\10\LIB\10.0.22621.0\UM\X64\ADVAPI32.LIB
C:\PROGRAM FILES (X86)\WINDOWS KITS\10\LIB\10.0.22621.0\UM\X64\SHELL32.LIB
C:\PROGRAM FILES (X86)\WINDOWS KITS\10\LIB\10.0.22621.0\UM\X64\OLE32.LIB
C:\PROGRAM FILES (X86)\WINDOWS KITS\10\LIB\10.0.22621.0\UM\X64\OLEAUT32.LIB
C:\PROGRAM FILES (X86)\WINDOWS KITS\10\LIB\10.0.22621.0\UM\X64\UUID.LIB
C:\PROGRAM FILES (X86)\WINDOWS KITS\10\LIB\10.0.22621.0\UM\X64\ODBC32.LIB
C:\PROGRAM FILES (X86)\WINDOWS KITS\10\LIB\10.0.22621.0\UM\X64\ODBCCP32.LIB
U:\PROJECTS\PROJECTWORK\PROJECTWORK\X64\DEBUG\HELPER.OBJ
U:\PROJECTS\PROJECTWORK\PROJECTWORK\X64\DEBUG\PROJECTWORK.OBJ
C:\WINDOWS\SYSTEM32\TZRES.DLL
C:\WINDOWS\GLOBALIZATION\SORTING\SORTDEFAULT.NLS
P:\VSCODE\VC\TOOLS\MSVC\14.38.33130\LIB\X64\MSVCRTD.LIB
P:\VSCODE\VC\TOOLS\MSVC\14.38.33130\LIB\X64\OLDNAMES.LIB
P:\VSCODE\VC\TOOLS\MSVC\14.38.33130\LIB\X64\MSVCPRTD.LIB
P:\VSCODE\VC\TOOLS\MSVC\14.38.33130\LIB\X64\VCRUNTIMED.LIB
C:\PROGRAM FILES (X86)\WINDOWS KITS\10\LIB\10.0.22621.0\UCRT\X64\UCRTD.LIB
U:\PROJECTS\PROJECTWORK\PROJECTWORK\X64\DEBUG\VC143.PDB
